\relax 
\catcode `:\active 
\catcode `;\active 
\catcode `!\active 
\catcode `?\active 
\select@language{french}
\@writefile{toc}{\select@language{french}}
\@writefile{lof}{\select@language{french}}
\@writefile{lot}{\select@language{french}}
\@writefile{toc}{\contentsline {section}{\numberline {0.1}Pr\IeC {\'e}face}{1}}
\@writefile{toc}{\contentsline {chapter}{\numberline {1}Introduction}{2}}
\@writefile{lof}{\addvspace {10\p@ }}
\@writefile{lot}{\addvspace {10\p@ }}
\@writefile{toc}{\contentsline {section}{\numberline {1.1}Description}{2}}
\@writefile{toc}{\contentsline {section}{\numberline {1.2}Contexte}{2}}
\@writefile{lof}{\contentsline {figure}{\numberline {1.1}{\ignorespaces Sch\IeC {\'e}ma de contexte}}{3}}
\@writefile{toc}{\contentsline {section}{\numberline {1.3}Objectifs}{4}}
\@writefile{toc}{\contentsline {subsection}{\numberline {1.3.1}Phase 1 : Automatisation}{4}}
\@writefile{toc}{\contentsline {subsection}{\numberline {1.3.2}Phase 2 : R\IeC {\'e}alisation}{4}}
\@writefile{toc}{\contentsline {subsection}{\numberline {1.3.3}Phase 3 : Distribution}{4}}
\@writefile{toc}{\contentsline {section}{\numberline {1.4}Projet de laboratoire}{4}}
\@writefile{toc}{\contentsline {part}{I\hspace  {1em}Th\IeC {\'e}orie}{5}}
\@writefile{toc}{\contentsline {chapter}{\numberline {2}Choix des langages de programmation}{6}}
\@writefile{lof}{\addvspace {10\p@ }}
\@writefile{lot}{\addvspace {10\p@ }}
\@writefile{toc}{\contentsline {section}{\numberline {2.1}Introduction}{6}}
\@writefile{toc}{\contentsline {section}{\numberline {2.2}Application Desktop}{6}}
\@writefile{toc}{\contentsline {section}{\numberline {2.3}Application Smartphone}{6}}
\@writefile{lof}{\contentsline {figure}{\numberline {2.1}{\ignorespaces Structure de l'application Smartphone}}{7}}
\@writefile{toc}{\contentsline {chapter}{\numberline {3}Cordova}{8}}
\@writefile{lof}{\addvspace {10\p@ }}
\@writefile{lot}{\addvspace {10\p@ }}
\@writefile{toc}{\contentsline {section}{\numberline {3.1}Introduction}{8}}
\@writefile{toc}{\contentsline {section}{\numberline {3.2}Concepte de fonctionnement}{9}}
\@writefile{lof}{\contentsline {figure}{\numberline {3.1}{\ignorespaces Concepte de fonctionnement - Apache Cordova}}{9}}
\@writefile{lol}{\contentsline {lstlisting}{\numberline {3.1}Java : Exemple d'un plugin Cordova (API native Android)}{10}}
\@writefile{lol}{\contentsline {lstlisting}{\numberline {3.2}JavaScript : Exemple d'un plugin Cordova (API JavaScript)}{10}}
\@writefile{toc}{\contentsline {chapter}{\numberline {4}Bluetooth}{11}}
\@writefile{lof}{\addvspace {10\p@ }}
\@writefile{lot}{\addvspace {10\p@ }}
\@writefile{toc}{\contentsline {section}{\numberline {4.1}Introduction}{11}}
\@writefile{toc}{\contentsline {section}{\numberline {4.2}Pourquoi Bluetooth ?}{11}}
\@writefile{toc}{\contentsline {section}{\numberline {4.3}BlueCove}{12}}
\@writefile{toc}{\contentsline {section}{\numberline {4.4}API Mobile}{12}}
\@writefile{toc}{\contentsline {part}{II\hspace  {1em}Pratique}{13}}
\@writefile{toc}{\contentsline {chapter}{\numberline {5}Testes de faisabilit\IeC {\'e}s}{14}}
\@writefile{lof}{\addvspace {10\p@ }}
\@writefile{lot}{\addvspace {10\p@ }}
\@writefile{toc}{\contentsline {section}{\numberline {5.1}Introduction}{14}}
\@writefile{toc}{\contentsline {section}{\numberline {5.2}TF-1}{14}}
\@writefile{toc}{\contentsline {subsection}{\numberline {5.2.1}Description}{14}}
\@writefile{lof}{\contentsline {figure}{\numberline {5.1}{\ignorespaces TF-1 - Vue d'ensemble}}{15}}
\@writefile{toc}{\contentsline {subsection}{\numberline {5.2.2}D\IeC {\'e}ploiment d'une Xapp}{16}}
\@writefile{lof}{\contentsline {figure}{\numberline {5.2}{\ignorespaces TF-1 - D\IeC {\'e}ploiment en m\IeC {\'e}moire externe d'une Xapp}}{16}}
\@writefile{toc}{\contentsline {subsection}{\numberline {5.2.3}Chargement et ex\IeC {\'e}cution d'une Xapp}{16}}
\@writefile{lof}{\contentsline {figure}{\numberline {5.3}{\ignorespaces TF-1 - Chargement et ex\IeC {\'e}cution d'une Xapp}}{17}}
\@writefile{toc}{\contentsline {section}{\numberline {5.3}TF-2}{17}}
\@writefile{toc}{\contentsline {subsection}{\numberline {5.3.1}Description}{17}}
\@writefile{lof}{\contentsline {figure}{\numberline {5.4}{\ignorespaces TF-2 - Vue d'ensemble}}{18}}
\@writefile{toc}{\contentsline {subsection}{\numberline {5.3.2}Activation de Bluetooth}{19}}
\@writefile{lof}{\contentsline {figure}{\numberline {5.5}{\ignorespaces TF-2 - Demande d'activation du Bluetooth}}{19}}
\@writefile{toc}{\contentsline {subsection}{\numberline {5.3.3}Connexion \IeC {\`a} l'ordinateur}{19}}
\@writefile{lof}{\contentsline {figure}{\numberline {5.6}{\ignorespaces TF-2 - Connexion \IeC {\`a} l'ordinateur}}{20}}
\@writefile{toc}{\contentsline {subsection}{\numberline {5.3.4}Envoi et r\IeC {\'e}ception de messages}{20}}
\@writefile{lof}{\contentsline {figure}{\numberline {5.7}{\ignorespaces TF-2 - Conversation}}{21}}
\@writefile{toc}{\contentsline {chapter}{\numberline {6}Synth\IeC {\`e}se et conclusion}{22}}
\@writefile{lof}{\addvspace {10\p@ }}
\@writefile{lot}{\addvspace {10\p@ }}
\@writefile{toc}{\contentsline {chapter}{\numberline {7}Webographie}{24}}
\@writefile{lof}{\addvspace {10\p@ }}
\@writefile{lot}{\addvspace {10\p@ }}
