\relax 
\catcode `:\active 
\catcode `;\active 
\catcode `!\active 
\catcode `?\active 
\select@language{french}
\@writefile{toc}{\select@language{french}}
\@writefile{lof}{\select@language{french}}
\@writefile{lot}{\select@language{french}}
\@writefile{toc}{\contentsline {section}{\numberline {1}Description}{1}}
\@writefile{toc}{\contentsline {section}{\numberline {2}Contexte}{1}}
\@writefile{lof}{\contentsline {figure}{\numberline {1}{\ignorespaces Sch\IeC {\'e}ma de contexte}}{1}}
\@writefile{toc}{\contentsline {section}{\numberline {3}Objectifs}{2}}
\@writefile{toc}{\contentsline {subsection}{\numberline {3.1}Phase 1 : Automatisation}{2}}
\@writefile{toc}{\contentsline {subsection}{\numberline {3.2}Phase 2 : R\IeC {\'e}alisation}{2}}
\@writefile{toc}{\contentsline {subsection}{\numberline {3.3}Phase 3 : Distribution}{3}}
