\select@language {french}
\contentsline {section}{\numberline {1}Description}{1}
\contentsline {section}{\numberline {2}Contexte}{1}
\contentsline {section}{\numberline {3}Objectifs}{2}
\contentsline {subsection}{\numberline {3.1}Phase 1 : Automatisation}{2}
\contentsline {subsection}{\numberline {3.2}Phase 2 : R\IeC {\'e}alisation}{2}
\contentsline {subsection}{\numberline {3.3}Phase 3 : Distribution}{3}
